<?xml version="1.0" encoding="utf-8"?>
<!-- Generator: Adobe Illustrator 20.0.0, SVG Export Plug-In . SVG Version: 6.00 Build 0)  -->
<svg version="1.1" id="Layer_1" xmlns="http://www.w3.org/2000/svg" xmlns:xlink="http://www.w3.org/1999/xlink" x="0px" y="0px"
	 viewBox="0 0 871.5 448.5" style="enable-background:new 0 0 871.5 448.5;" xml:space="preserve">
<style type="text/css">
	.st0{fill:none;stroke:#111111;stroke-width:8;}
	.st1{fill:#9B9B9B;}
	.st2{enable-background:new    ;}
	.st3{fill:#191919;}
	.st4{font-family:'Roboto-BoldItalic';}
	.st5{font-size:19.1421px;}
</style>
<path class="st0" d="M459.8,259.8l359.5-38c0,0,18.3-4.4,27.4,9.4c9.1,13.8,1.3,66.9-2.8,79c-3.2,9.6-19.2,35.8-33.5,45.5
	c-13.8,9.4-52.1,29.8-77.7,34.7c-25.6,5-224.8,34.5-224.8,34.5l-27.3,8.1l-333.1-11.2c0,0-13.4-3.8-16.1-9.4
	c-3.3-6.7,4.5-22.9,13.6-31.1s29.8-17.4,32.2-30.6s-1.2-100.5-4.5-109.1s-7.9-12.6-21.9-10.4c-14,2.2-78.7,9-88.9,9.5
	c-12.1,0.6-36.9-25.8-34.1-51.3c1.3-12,59.6-86.5,59.6-86.5s74.9-58.6,89.1-63.6c11.7-4.2,125.7-13.7,128.5-10.4
	c1.4,1.6,2,4.8,2.7,7.5l6.3,78.5c1,17.5,11.2,22.5,23.2,25.2c11,2.5,38.5-3,48.8,7.2c6.8,6.8,9.8,16.4,10.5,27
	c1,14.8-8.2,59,13.1,75.5C417.8,256.3,441.7,261.5,459.8,259.8z"/>
<g>
	<polygon id="Rectangle-13-Copy" class="st1" points="155.5,344.6 188,344.6 183.3,373.3 150.8,373.3 	"/>
	<g class="st2">
		<text transform="matrix(1 0 0 1 164.0527 365.5544)" class="st3 st4 st5">4</text>
	</g>
</g>
<g>
	<polygon id="Rectangle-13-Copy_1_" class="st1" points="155.4,217.3 188,217.3 183.3,246 150.8,246 	"/>
	<text transform="matrix(1 0 0 1 164.0478 238.2973)" class="st3 st4 st5">5</text>
</g>
<g>
	<polygon id="Rectangle-13-Copy-2" class="st1" points="14.4,190.5 46.9,190.5 42.3,219.2 9.8,219.2 	"/>
	<text transform="matrix(1 0 0 1 23.87 211.48)" class="st3 st4 st5">6</text>
</g>
<g>
	<polygon id="Rectangle-13-Copy_2_" class="st1" points="161.5,21.5 194,21.5 189.3,50.2 156.9,50.2 	"/>
	<text transform="matrix(1 0 0 1 169.8735 42.3737)" class="st3 st4 st5">7</text>
</g>
<g>
	<polygon id="Rectangle-13-Copy_3_" class="st1" points="289.2,15.9 321.7,15.9 317.1,44.6 284.6,44.6 	"/>
	<text transform="matrix(1 0 0 1 298.6145 35.8626)" class="st3 st4 st5">8</text>
</g>
<g>
	<polygon id="Rectangle-13-Copy_4_" class="st1" points="307.7,121.4 340.2,121.4 335.6,150.1 303.1,150.1 	"/>
	<text transform="matrix(1 0 0 1 316.3148 141.3973)" class="st3 st4 st5">9</text>
</g>
<g>
	<polygon id="Rectangle-13-Copy_5_" class="st1" points="828.9,211.6 861.4,211.6 856.7,240.3 824.3,240.3 	"/>
	<text transform="matrix(1 0 0 1 837.498 231.6473)" class="st3 st4 st5">1</text>
</g>
<g>
	<polygon id="Rectangle-13-Copy_6_" class="st1" points="816.5,324.6 849,324.6 844.3,353.3 811.8,353.3 	"/>
	<text transform="matrix(1 0 0 1 824.9891 344.5544)" class="st3 st4 st5">2</text>
</g>
<g>
	<polygon id="Rectangle-13-Copy_7_" class="st1" points="115.3,399.6 147.8,399.6 143.2,428.3 110.7,428.3 	"/>
	<text transform="matrix(1 0 0 1 124.7625 419.5408)" class="st3 st4 st5">3</text>
</g>
<g>
	<polygon id="Rectangle-13-Copy_8_" class="st1" points="374.1,131 406.6,131 402,159.7 369.5,159.7 	"/>
	<text transform="matrix(1 0 0 1 377.3246 150.9924)" class="st3 st4 st5">10</text>
</g>
<g>
	<polygon id="Rectangle-13-Copy_9_" class="st1" points="399.1,238.3 431.6,238.3 427,267 394.5,267 	"/>
	<text transform="matrix(1 0 0 1 402.2914 258.2973)" class="st3 st4 st5">11</text>
</g>
</svg>
