<svg xmlns="http://www.w3.org/2000/svg" viewBox="0 0 32 26">
  <path class="icon-list" d="M3,3A3,3,0,1,0,6,6,3,3,0,0,0,3,3ZM3,23a3,3,0,1,0,3,3A3,3,0,0,0,3,23ZM3,13a3,3,0,1,0,3,3A3,3,0,0,0,3,13ZM30,3H10A2,2,0,0,0,8,5V7a2,2,0,0,0,2,2H30a2,2,0,0,0,2-2V5A2,2,0,0,0,30,3Zm0,10H10a2,2,0,0,0-2,2v2a2,2,0,0,0,2,2H30a2,2,0,0,0,2-2V15A2,2,0,0,0,30,13Zm0,10H10a2,2,0,0,0-2,2v2a2,2,0,0,0,2,2H30a2,2,0,0,0,2-2V25A2,2,0,0,0,30,23Z" transform="translate(0 -3)"/>
</svg>
